<svg xmlns="http://www.w3.org/2000/svg" width="62" height="62" viewBox="0 0 62 62">
  <g id="Group_13798" data-name="Group 13798" transform="translate(-146 -2701)">
    <circle id="Ellipse_283" data-name="Ellipse 283" cx="31" cy="31" r="31" transform="translate(146 2701)" fill="#0035c9"/>
    <g id="sharp-business-24px" transform="translate(157 2712)">
      <path id="Path_14585" data-name="Path 14585" d="M0,0H40V40H0Z" fill="none"/>
      <path id="Path_14586" data-name="Path 14586" d="M20,10.556V3H2V37H38V10.556ZM9.2,33.222H5.6V29.444H9.2Zm0-7.556H5.6V21.889H9.2Zm0-7.556H5.6V14.333H9.2Zm0-7.556H5.6V6.778H9.2Zm7.2,22.667H12.8V29.444h3.6Zm0-7.556H12.8V21.889h3.6Zm0-7.556H12.8V14.333h3.6Zm0-7.556H12.8V6.778h3.6Zm18,22.667H20V29.444h3.6V25.667H20V21.889h3.6V18.111H20V14.333H34.4ZM30.8,18.111H27.2v3.778h3.6Zm0,7.556H27.2v3.778h3.6Z" transform="translate(0 0)" fill="#fff"/>
    </g>
  </g>
</svg>
