<svg xmlns="http://www.w3.org/2000/svg" width="62" height="62" viewBox="0 0 62 62">
  <g id="Group_13809" data-name="Group 13809" transform="translate(-146 -1439)">
    <circle id="Ellipse_277" data-name="Ellipse 277" cx="31" cy="31" r="31" transform="translate(146 1439)" fill="#fdc638"/>
    <g id="sharp-store_mall_directory-24px" transform="translate(157 1450)">
      <path id="Path_14590" data-name="Path 14590" d="M0,0H40V40H0Z" fill="none"/>
      <path id="Path_14591" data-name="Path 14591" d="M35.111,4H4.889V8H35.111ZM37,24V20L35.111,10H4.889L3,20v4H4.889V36H23.778V24h7.556V36h3.778V24ZM20,32H8.667V24H20Z" transform="translate(0)" fill="#fff"/>
    </g>
  </g>
</svg>
