<svg xmlns="http://www.w3.org/2000/svg" width="24" height="24" viewBox="0 0 24 24">
  <g id="Group_13901" data-name="Group 13901" transform="translate(-14221 -1149)">
    <path id="Path_14634" data-name="Path 14634" d="M0,0H24V24H0Z" transform="translate(14221 1149)" fill="none"/>
    <g id="facebook-logo" transform="translate(14206.923 1154)">
      <path id="Path_14632" data-name="Path 14632" d="M29.361,0,27.546,0a3.188,3.188,0,0,0-3.358,3.445V5.034H22.362a.285.285,0,0,0-.285.286v2.3a.285.285,0,0,0,.285.285h1.825v5.808a.285.285,0,0,0,.285.285h2.382a.285.285,0,0,0,.285-.285V7.907h2.134a.285.285,0,0,0,.285-.285V5.32a.286.286,0,0,0-.286-.286H27.14V3.687c0-.647.154-.976,1-.976h1.223a.285.285,0,0,0,.285-.285V.288A.286.286,0,0,0,29.361,0Z" fill="#677282"/>
    </g>
  </g>
</svg>
